%YAML 1.1
%TAG !u! tag:unity3d.com,2011:
--- !u!114 &11400000
MonoBehaviour:
  m_ObjectHideFlags: 0
  m_CorrespondingSourceObject: {fileID: 0}
  m_PrefabInternal: {fileID: 0}
  m_GameObject: {fileID: 0}
  m_Enabled: 1
  m_EditorHideFlags: 0
  m_Script: {fileID: 11500000, guid: 54d21f6ece3b46479f0c328f8c6007e0, type: 3}
  m_Name: Color
  m_EditorClassIdentifier: 
  topLeft: {r: 0.9245283, g: 0.89700747, b: 0.07413671, a: 0.6745098}
  topRight: {r: 0.9245283, g: 0.90352905, b: 0.07413671, a: 1}
  bottomLeft: {r: 0.9150943, g: 0.895451, b: 0.09064613, a: 1}
  bottomRight: {r: 0.89820546, g: 0.9150943, b: 0.082013145, a: 1}
